{
  "cultural_date_format": "%d-%m-%Y",
  "languages": ["fi", "se", "en"],
  "translation": [
    {
      "fi": "Kieli",
      "en": "Language",
      "se": "Språk"
      
    },
    {
      "fi": "Lajikohtaiset havainnot",
      "en": "Species observations",
      "se": "Observationer artvis"
    },
    {
      "fi": "Ohjeet",
      "en": "Help",
      "se": "Instruktioner"
    },
    {
      "fi": "Haahkaa tukevat",
      "en": "Haahka is supported by",
      "se": "Haahka stöds av"
    },
    {
      "fi": "Sovellusversio",
      "en": "App version",
      "se": "Version av app"
    },
    {
      "fi": "Aineistoversio",
      "en": "Data version",
      "se": "Version av data"
    },
    {
      "fi": "Valitse laji listasta tai tyhjennä kenttä ja kirjoita lajinimi",
      "en": "Select species from list or clear the field and type in species name",
      "se": "Välj en art från listan eller rensa fältet och skriv namnet"
    },
    {
      "fi": "Viittausohje",
      "en": "How to cite",
      "se": "Citationsinstruktioner"
    },
    {
      "fi": "Kuvaa ei löydy",
      "en": "No image found",
      "se": "Bild hittas ej"
    },
    {
      "fi": "Kuvausteksti tulossa myöhemmin",
      "en": "Description only available in Finnish",
      "se": "Beskrivning endast på finska"
    },
    {
      "fi": "Muuttajamäärien keskiarvot",
      "en": "Average number of migrating birds",
      "se": "Medelantal sträckande"
    },
    {
      "fi": "Paikallisten määrien keskiarvot",
      "en": "Average number of stationary birds",
      "se": "Medelantal stationära fåglar"
    },
    {
      "fi": "Yksilöä / havaintopäivä",
      "en": "Individuals / obs. day ",
      "se": "Individer / observationsdag"
    },
    {
      "fi": "Runsauksien muutokset",
      "en": "Change in abundance",
      "se": "Förändringar i abundans"
    },
    {
      "fi": "Muuton ajoittumisen mediaanipäivämäärä",
      "en": "Migration median date",
      "se": "Mediandatum för sträck"
    },
    {
      "fi": "Runsauden muutokset",
      "en": "Change in abundance",
      "se": "Förändring i abundans"
    },
    {
      "fi": "Pitkän aikavälin muutos = keskirunsauden muutos aikajaksolta 1979-1999 aikajaksolle 2011-2017.",
      "en": "Long term change = change in average abundance from 1979-1999 to 2011-2017.",
      "se": "Långfristig förändring = förändring i medelabundans från 1979-1999 till 2011-2017."
    },
    {
      "fi": "Lyhyen aikavälin muutos = keskirunsauden muutos aikajaksolta 2000-2010 aikajaksolle 2011-2017.",
      "en": "Short term change = change in average abundance from 2000-2010 to 2011-2017.",
      "se": "Kortfristig förändring = förändring i medelabundans från 2000-2010 till 2011-2017."
    },
    {
      "fi": "Pitkän aikavälin muutos",
      "en": "Long term change",
      "se": "Långfristig förändring"
    },
    {
      "fi": "Lyhyen aikavälin muutos",
      "en": "Short term change",
      "se": "Kortfristig förändring"
    },
    {
      "fi": "Päivittäiset keskirunsaudet yhteensä",
      "en": "Summed daily average abundances",
      "se": "Summan av dagliga medelabundanser"
    },
    {
      "fi": " ja ",
      "en": " and ",
      "se": " och "
    },
    {
      "fi": "Runsausennätykset",
      "en": "Abundance records",
      "se": "Rekord; största antal"
    },
    {
      "fi": "Kevät",
      "en": "Spring",
      "se": "Vår"
    },
    {
      "fi": "Syksy",
      "en": "Autumn",
      "se": "Höst"
    },
    {
      "fi": "Syys",
      "en": "Autumn",
      "se": "Höst"
    },
    {
      "fi": "Muuttavat",
      "en": "Migrating",
      "se": "Sträckande"
    },
    {
      "fi": "Paikalliset",
      "en": "Locals",
      "se": "Stationära"
    },
    {
      "fi": "Keskirunsaus",
      "en": "Average abundance",
      "se": "Medelabundans"
    },
    {
      "fi": "Ei kuvia tälle lajille",
      "en": "No images found",
      "se": "Bild hittas ej för denna art"
    },
    {
      "fi": "Aineisto",
      "en": "Data",
      "se": "Data"
    },
    {
      "fi": "Hangon lintuaseman pitkäaikaisaineisto",
      "en": "Long term data from the Hanko Bird Observatory",
      "se": "Långtidsdata från Hangö fågelstation"
    },
    {
      "fi": "Verkkosovellus",
      "en": "Web App",
      "se": "Webb app"
    },
    {
      "fi": "Lisenssi",
      "en": "License",
      "se": "Licens"
    },
    {
      "fi": "Palaute: ",
      "en": "Feedback: ",
      "se": "Återkoppling: "
    }
    ]
}
